module github.com/MuShaf-NMS/peduli_muslim

go 1.17

require (
	github.com/gin-contrib/cors v1.3.1
	github.com/gin-gonic/gin v1.8.1
	github.com/go-playground/validator/v10 v10.11.0
	github.com/golang-jwt/jwt/v4 v4.4.1
	github.com/google/uuid v1.3.0
	github.com/joho/godotenv v1.4.0
	golang.org/x/crypto v0.0.0-20220525230936-793ad666bf5e
	golang.org/x/oauth2 v0.0.0-20220608161450-d0670ef3b1eb
	gopkg.in/gomail.v2 v2.0.0-20160411212932-81ebce5c23df
	gorm.io/driver/mysql v1.3.4
	gorm.io/driver/postgres v1.3.7
	gorm.io/gorm v1.23.5
)

require (
	cloud.google.com/go v0.100.2 // indirect
	cloud.google.com/go/compute v1.6.1 // indirect
	github.com/gin-contrib/sse v0.1.0 // indirect
	github.com/go-playground/locales v0.14.0 // indirect
	github.com/go-playground/universal-translator v0.18.0 // indirect
	github.com/go-sql-driver/mysql v1.6.0 // indirect
	github.com/goccy/go-json v0.9.7 // indirect
	github.com/golang/glog v0.0.0-20160126235308-23def4e6c14b // indirect
	github.com/golang/protobuf v1.5.2 // indirect
	github.com/jackc/chunkreader/v2 v2.0.1 // indirect
	github.com/jackc/pgconn v1.12.1 // indirect
	github.com/jackc/pgio v1.0.0 // indirect
	github.com/jackc/pgpassfile v1.0.0 // indirect
	github.com/jackc/pgproto3/v2 v2.3.0 // indirect
	github.com/jackc/pgservicefile v0.0.0-20200714003250-2b9c44734f2b // indirect
	github.com/jackc/pgtype v1.11.0 // indirect
	github.com/jackc/pgx/v4 v4.16.1 // indirect
	github.com/jinzhu/inflection v1.0.0 // indirect
	github.com/jinzhu/now v1.1.5 // indirect
	github.com/json-iterator/go v1.1.12 // indirect
	github.com/leodido/go-urn v1.2.1 // indirect
	github.com/mattn/go-isatty v0.0.14 // indirect
	github.com/modern-go/concurrent v0.0.0-20180306012644-bacd9c7ef1dd // indirect
	github.com/modern-go/reflect2 v1.0.2 // indirect
	github.com/pelletier/go-toml/v2 v2.0.2 // indirect
	github.com/pkg/errors v0.9.1 // indirect
	github.com/ugorji/go/codec v1.2.7 // indirect
	github.com/zalando/gin-oauth2 v1.5.3 // indirect
	golang.org/x/net v0.0.0-20220607020251-c690dde0001d // indirect
	golang.org/x/sys v0.0.0-20220608164250-635b8c9b7f68 // indirect
	golang.org/x/text v0.3.7 // indirect
	google.golang.org/appengine v1.6.7 // indirect
	google.golang.org/protobuf v1.28.0 // indirect
	gopkg.in/alexcesaro/quotedprintable.v3 v3.0.0-20150716171945-2caba252f4dc // indirect
	gopkg.in/yaml.v2 v2.4.0 // indirect
)
